{
	"page": 1,
	"total_results": 10000,
	"total_pages": 500,
	"results": [
		{
			"popularity": 134.228,
			"vote_count": 432,
			"video": false,
			"poster_path": "/AboUXTrDWEi0PuZUqaft0iwBTm7.jpg",
			"id": 689249,
			"adult": false,
			"backdrop_path": "/yEBBtk1eyZltGgJt8Z2zi3KIvvX.jpg",
			"original_language": "es",
			"original_title": "La casa de papel: El fenómeno",
			"genre_ids": [99],
			"title": "Money Heist: The Phenomenon",
			"vote_average": 7.7,
			"overview": "A documentary on why and how 'Money Heist' sparked a wave of enthusiasm around the world for a lovable group of thieves and their professor.",
			"release_date": "2020-04-03"
		},
		{
			"popularity": 119.423,
			"vote_count": 65,
			"video": false,
			"poster_path": "/jjs3hE3mQlVGTX3u5ZH2EJBJpf3.jpg",
			"id": 743601,
			"adult": false,
			"backdrop_path": "/62buUp8hR037V6Y6JuRSM90zN8T.jpg",
			"original_language": "en",
			"original_title": "American Murder: The Family Next Door",
			"genre_ids": [80, 99, 18, 27, 9648],
			"title": "American Murder: The Family Next Door",
			"vote_average": 7.5,
			"overview": "Using raw, firsthand footage, this documentary examines the disappearance of Shanann Watts and her children, and the terrible events that followed.",
			"release_date": "2020-09-30"
		},
		{
			"popularity": 109.922,
			"vote_count": 118,
			"video": false,
			"poster_path": "/rfItXrtDGILwsCdmgVxX79phFuI.jpg",
			"id": 440249,
			"adult": false,
			"backdrop_path": "/hlWkyIz2UxTcFVPw1u2c3qkPfhB.jpg",
			"original_language": "en",
			"original_title": "After Porn Ends 2",
			"genre_ids": [99],
			"title": "After Porn Ends 2",
			"vote_average": 5.1,
			"overview": "After Porn Ends 2 picks up where its predecessor left off and not only turns back the clock to meet the oldest living stars in adult film's history, but goes in depth with some of Its most current retirees and juxtaposes their experiences in a life after porn. Delving deeper into society's ongoing stigmas of race, misogyny, and the reality of decreasing opportunities for these former VHS box cover stars. For some, their careers in adult entertainment is accepted proudly and without regret. In fact, it seems to have proven to be the pathway to their current happiness and inner peace. For others, however, a career in porn has proven to be a conduit to certain despair as they struggle to find a way to bury their past and emerge with a new career or calling.",
			"release_date": "2017-03-28"
		},
		{
			"popularity": 108.882,
			"vote_count": 3,
			"video": false,
			"poster_path": "/hXlpG1H9Lmv31kOPfsfnBe8Ec4R.jpg",
			"id": 720998,
			"adult": false,
			"backdrop_path": null,
			"original_language": "en",
			"original_title": "The Walking Dead: The Journey So Far",
			"genre_ids": [99],
			"title": "The Walking Dead: The Journey So Far",
			"vote_average": 3.2,
			"overview": "From the moment Rick wakes up in the hospital, all the way to the last moments of season 6, the story of 'The Walking Dead' is told by those who have lived it.",
			"release_date": "2016-10-16"
		},
		{
			"popularity": 95.099,
			"vote_count": 404,
			"video": false,
			"poster_path": "/j4CBsXaGcltcHGbcxsWD5VfEaiU.jpg",
			"id": 656690,
			"adult": false,
			"backdrop_path": "/i26FIo5vJrR4u8ZZBm8o5Q4T9di.jpg",
			"original_language": "en",
			"original_title": "The Social Dilemma",
			"genre_ids": [99, 18],
			"title": "The Social Dilemma",
			"vote_average": 7.8,
			"overview": "This documentary-drama hybrid explores the dangerous human impact of social networking, with tech experts sounding the alarm on their own creations.",
			"release_date": "2020-01-26"
		},
		{
			"popularity": 67.542,
			"id": 241829,
			"video": false,
			"vote_count": 118,
			"vote_average": 8,
			"title": "The Making of The Walking Dead",
			"release_date": "2010-07-31",
			"original_language": "en",
			"original_title": "The Making of The Walking Dead",
			"genre_ids": [99],
			"backdrop_path": null,
			"adult": false,
			"overview": "The Making of the TV Series The Walking Dead",
			"poster_path": null
		},
		{
			"popularity": 64.997,
			"id": 128748,
			"video": false,
			"vote_count": 33,
			"vote_average": 6.5,
			"title": "Curse of the Blair Witch",
			"release_date": "1999-07-11",
			"original_language": "en",
			"original_title": "Curse of the Blair Witch",
			"genre_ids": [99, 27, 53],
			"backdrop_path": null,
			"adult": false,
			"overview": "Curse of the Blair Witch is a documentary about the Blair Witch legend and the three filmmakers who disappeared in October of 1999. It first aired on the Sci-Fi Channel on July 11, 1999 as a promotional prelude to the release of The Blair Witch Project on July 30, 1999.",
			"poster_path": "/kTqRbjRIA6B1RbBaoLV098kwtXa.jpg"
		},
		{
			"popularity": 63.189,
			"vote_count": 23,
			"video": false,
			"poster_path": "/oso09gID2bFk9q3Cni8GNOuzTWZ.jpg",
			"id": 726887,
			"adult": false,
			"backdrop_path": "/7OJ2FUlCQKILEfPZXzqKWp3mbUA.jpg",
			"original_language": "en",
			"original_title": "Rising Phoenix",
			"genre_ids": [99],
			"title": "Rising Phoenix",
			"vote_average": 8.4,
			"overview": "The history and current standing of the Paralympic Games, which has grown to become the world's third largest sporting event.",
			"release_date": "2020-08-26"
		},
		{
			"popularity": 59.429,
			"vote_count": 24,
			"video": false,
			"poster_path": "/h70gDIHVJ1uKoUVjyaaCeX0txPW.jpg",
			"id": 725239,
			"adult": false,
			"backdrop_path": "/wHyu1rbcKx3bMyc17Ls3qNHCCpI.jpg",
			"original_language": "en",
			"original_title": "The Swamp",
			"genre_ids": [99],
			"title": "The Swamp",
			"vote_average": 6.5,
			"overview": "A look behind the curtain of Washington politics following three \"renegade\" Republican Congressmen as they bring libertarian and conservative zeal to champion the President’s call to “drain the swamp.”",
			"release_date": "2020-08-04"
		},
		{
			"popularity": 48.111,
			"vote_count": 47,
			"video": false,
			"poster_path": "/hvTVZb7hBC8tZAGoEhH5eiMJu2B.jpg",
			"id": 682110,
			"adult": false,
			"backdrop_path": "/168XLrPsZtHff1cOEaMPtgCjGuP.jpg",
			"original_language": "en",
			"original_title": "My Octopus Teacher",
			"genre_ids": [99],
			"title": "My Octopus Teacher",
			"vote_average": 8.7,
			"overview": "After years of swimming every day in the freezing ocean at the tip of Africa, Craig Foster meets an unlikely teacher: a young octopus who displays remarkable curiosity. Visiting her den and tracking her movements for months on end he eventually wins the animal’s trust and they develop a never-before-seen bond between human and wild animal.",
			"release_date": "2020-03-19"
		},
		{
			"popularity": 46.434,
			"vote_count": 386,
			"video": false,
			"poster_path": "/75ot83QOkc02vujyzmIbumQCU6Y.jpg",
			"id": 318256,
			"adult": false,
			"backdrop_path": null,
			"original_language": "en",
			"original_title": "Hot Girls Wanted",
			"genre_ids": [99],
			"title": "Hot Girls Wanted",
			"vote_average": 6,
			"overview": "A first-ever look at the realities of the professional “amateur” porn world and the steady stream of 18-to-19-year old girls entering into it.",
			"release_date": "2015-05-29"
		},
		{
			"popularity": 43.905,
			"id": 381749,
			"video": false,
			"vote_count": 44,
			"vote_average": 4.8,
			"title": "Porn to Be Free",
			"release_date": "2016-06-24",
			"original_language": "it",
			"original_title": "Porno & Libertà",
			"genre_ids": [99],
			"backdrop_path": "/slh9qCbyDcMN2rC9FiueZ6pR2fj.jpg",
			"adult": false,
			"overview": "Italy, 1970. An increasing legion of harmless warriors begins a peaceful struggle for sexual freedom through pornography, shaking and shocking religious authorities and conservative political institutions. They are ironic, happy, crazy. They are dreamers, defenders of definitive communion between body and soul. But they were censored and humiliated. They were mistreated and arrested for demanding loud a new cultural renaissance.",
			"poster_path": "/pNuf9wcdZfL252ecHvYzXDVQWFT.jpg"
		},
		{
			"popularity": 43.173,
			"id": 745272,
			"video": false,
			"vote_count": 0,
			"vote_average": 0,
			"title": "The Phenomenon",
			"release_date": "2020-10-06",
			"original_language": "en",
			"original_title": "The Phenomenon",
			"genre_ids": [99],
			"backdrop_path": "/AfgTcW4C6gq6JyUj6KcEs3ZBgeb.jpg",
			"adult": false,
			"overview": "This documentary examines unidentified aerial phenomenon. With testimony from high-ranking government officials, and NASA Astronauts, Senator Harry Reid says it \"makes the incredible credible.\"",
			"poster_path": "/v2WWRtyYKrmLjtXhm53GMsGQQ2T.jpg"
		},
		{
			"popularity": 42.752,
			"vote_count": 5,
			"video": false,
			"poster_path": "/9cpcSgEon3BOkYHH8RMdU1SBSj4.jpg",
			"id": 721328,
			"adult": false,
			"backdrop_path": "/y9mtyQ8fiBPE9gOz8nXkLd5Ytl5.jpg",
			"original_language": "es",
			"original_title": "Los secretos de La Roja – Campeones del mundo",
			"genre_ids": [99],
			"title": "Los secretos de La Roja – Campeones del mundo",
			"vote_average": 5.2,
			"overview": "On the 11th July 2010, Spain’s national team reached its goal of winning the World Cup, a victory that was felt by the team and nation as a whole. Despite this successful ending, “La Roja” had to overcome various struggles and difficulties in order to become legendary. The team arrived in South Africa with the triumph of the 2008 European Football Championship under their belt and Vicente del Bosque leading the way. There was a general feeling of favoritism attributed to \"\"La Roja\"\" and while the defeat against Switzerland in the first match came as a shock, it motivated Del Bosque and his team to come together and focus on one intention: good football; and one goal: to make history.",
			"release_date": "2020-07-09"
		},
		{
			"popularity": 41.668,
			"vote_count": 3,
			"video": false,
			"poster_path": null,
			"id": 176812,
			"adult": false,
			"backdrop_path": null,
			"original_language": "en",
			"original_title": "The Walking Dead Girls",
			"genre_ids": [99],
			"title": "The Walking Dead Girls",
			"vote_average": 4.7,
			"overview": "The Walking Dead Girls is a behind-the-scenes look into zombie culture in the United States and the obsession into \"\"Sexy Female Zombies\"\". What is it about Zombie Bimbos or \"\"Zimbies\"\" that are starting to gain the worlds interest? Why are zombies now in mainstream culture and seen in advertising from JCPenny and Sears? With interviews with zombie master maker George Romero and cult movie star Bruce Campbell from ZomBcon 2010 and so much more. \"\"The Walking Dead Girls\"\" is a sexy look into the zombie phenomenon created by George Romero that is 40 years in the making",
			"release_date": "2011-03-22"
		},
		{
			"popularity": 39.944,
			"vote_count": 61,
			"video": false,
			"poster_path": "/4zGuFPHbVFOUCe2MWlc0WBjl3VS.jpg",
			"id": 726649,
			"adult": false,
			"backdrop_path": "/m7dFZdz6cS720lfTEKwe2Arkw3p.jpg",
			"original_language": "fr",
			"original_title": "Anelka : L'Incompris",
			"genre_ids": [99],
			"title": "Anelka: Misunderstood",
			"vote_average": 6.9,
			"overview": "Bad boy or football genius? Famed French footballer Nicolas Anelka's controversial legacy is examined in an unflinching documentary.",
			"release_date": "2020-08-05"
		},
		{
			"popularity": 39.466,
			"vote_count": 7,
			"video": false,
			"poster_path": "/8OkxtHotJnegiBbWQSz8fD60NEc.jpg",
			"id": 638566,
			"adult": false,
			"backdrop_path": "/kfLlBmKDLAdTZSpj8bzFEnnVh1c.jpg",
			"original_language": "ja",
			"original_title": "NARUTO to BORUTO The Live 2019",
			"genre_ids": [99],
			"title": "NARUTO to BORUTO The Live 2019",
			"vote_average": 8.4,
			"overview": "“NARUTO to BORUTO THE LIVE 2019”, a special event for the 20th anniversary of the first publication of “NARUTO” series in Weekly Shonen Jump!! Featuring live performances by artists performing the theme songs of both “NARUTO” and “BORUTO: NARUTO NEXT GENERATIONS”, anime cast members reading original story episodes, and more.",
			"release_date": "2019-05-05"
		},
		{
			"popularity": 38.037,
			"id": 744470,
			"video": false,
			"vote_count": 5,
			"vote_average": 7.6,
			"title": "Fernando Torres: The Last Symbol",
			"release_date": "2020-09-18",
			"original_language": "en",
			"original_title": "Fernando Torres: The Last Symbol",
			"genre_ids": [99],
			"backdrop_path": "/7Yw5mfZT1hkbEdUjWv4Jk8WeeRY.jpg",
			"adult": false,
			"overview": "A look at the life and career of Spanish football star Fernando Torres.",
			"poster_path": "/kkHLcvaBScIAQzr797s4ay1d5bw.jpg"
		},
		{
			"popularity": 37.878,
			"vote_count": 23,
			"video": false,
			"poster_path": "/uoQmK7FRXNIQa7sikGg1xM0QaN9.jpg",
			"id": 61927,
			"adult": false,
			"backdrop_path": null,
			"original_language": "en",
			"original_title": "Porno Unplugged",
			"genre_ids": [99],
			"title": "Porno Unplugged",
			"vote_average": 6.3,
			"overview": "Journalist Fabian Burstein looks behind the curtains of the porn industry. Starting in Budapest he heads westwards to explore a new world on its victory march rooted deeply in Austria. On this journey he meets the heroes and leading actors of this story: Austrians Mick Blue, Renee Pornero and Thomas Janisch. Porno Unplugged follows its native porn stars to where their lives happen. From east to west...",
			"release_date": "2009-03-17"
		},
		{
			"popularity": 37.352,
			"id": 739246,
			"video": false,
			"vote_count": 18,
			"vote_average": 7.4,
			"title": "GIMS: On the Record",
			"release_date": "2020-09-17",
			"original_language": "fr",
			"original_title": "GIMS: On the Record",
			"genre_ids": [99, 10402],
			"backdrop_path": "/tSufpHPNpFXlw6iuBxvvd9r2gZz.jpg",
			"adult": false,
			"overview": "Go backstage with beloved rap superstar Gims in the year leading up to his major 2019 Stade de France performance in this up-close documentary.",
			"poster_path": "/6iBnO51gBM5XApZPNVKbenPAxEJ.jpg"
		}
	]
}
